# 3ds Max Wavefront OBJ Exporter v0.97b - (c)2007 guruware
# File Created: 08.03.2018 15:15:32

newmtl Bubble
	Ns 50.000000
	Ni 1.500000
	d 0.600000
	Tr 0.400000
	Tf 0.600000 0.600000 0.600000 
	illum 2
	Ka 0.588000 0.588000 0.588000
	Kd 0.588000 0.588000 0.588000
	Ks 0.990000 0.990000 0.990000
	Ke 0.000000 0.000000 0.000000

newmtl wire_135110008
	Ns 32
	d 1
	Tr 0
	Tf 1 1 1
	illum 2
	Ka 0.529412 0.431373 0.031373
	Kd 0.529412 0.431373 0.031373
	Ks 0.350000 0.350000 0.350000
