# 3ds Max Wavefront OBJ Exporter v0.97b - (c)2007 guruware
# File Created: 08.03.2018 14:31:47

newmtl Daily_Prize_100_OMR
	Ns 10.000000
	Ni 1.500000
	d 1.000000
	Tr 0.000000
	Tf 1.000000 1.000000 1.000000 
	illum 2
	Ka 0.588000 0.588000 0.588000
	Kd 0.588000 0.588000 0.588000
	Ks 0.000000 0.000000 0.000000
	Ke 0.000000 0.000000 0.000000
	map_Ka D:\Eventagrate\Projects\J000222 - VR BANK GAME\Currency Bill\Currecy 3D\Daily Prize 100 OMR.jpg
	map_Kd D:\Eventagrate\Projects\J000222 - VR BANK GAME\Currency Bill\Currecy 3D\Daily Prize 100 OMR.jpg

newmtl Bubble
	Ns 50.000000
	Ni 1.500000
	d 0.600000
	Tr 0.400000
	Tf 0.600000 0.600000 0.600000 
	illum 2
	Ka 0.588000 0.588000 0.588000
	Kd 0.588000 0.588000 0.588000
	Ks 0.990000 0.990000 0.990000
	Ke 0.000000 0.000000 0.000000
